…
``` r
library(readxl)
mr_trash_wheel = read_excel("./data/HealthyHarborWaterWheelTotals.xlsx", sheet = "Mr. Trash Wheel", range = "A2:N336") %>%
  janitor::clean_names() %>%
  drop_na(dumpster) %>%
  mutate(sports_balls = as.integer(sports_balls, 0))
    
mr_trash_wheel
```

    ## # A tibble: 285 x 14
    ##    dumpster month  year date                weight_tons volume_cubic_ya…
    ##       <dbl> <chr> <dbl> <dttm>                    <dbl>            <dbl>
    ##  1        1 May    2014 2014-05-16 00:00:00        4.31               18
    ##  2        2 May    2014 2014-05-16 00:00:00        2.74               13
    ##  3        3 May    2014 2014-05-16 00:00:00        3.45               15
    ##  4        4 May    2014 2014-05-17 00:00:00        3.1                15
    ##  5        5 May    2014 2014-05-17 00:00:00        4.06               18
    ##  6        6 May    2014 2014-05-20 00:00:00        2.71               13
    ##  7        7 May    2014 2014-05-21 00:00:00        1.91                8
    ##  8        8 May    2014 2014-05-28 00:00:00        3.7                16
    ##  9        9 June   2014 2014-06-05 00:00:00        2.52               14
    ## 10       10 June   2014 2014-06-11 00:00:00        3.76               18
    ## # … with 275 more rows, and 8 more variables: plastic_bottles <dbl>,
    ## #   polystyrene <dbl>, cigarette_butts <dbl>, glass_bottles <dbl>,
    ## #   grocery_bags <dbl>, chip_bags <dbl>, sports_balls <int>,
    ## #   homes_powered <dbl>
…
``` r
pols_month =
  read_csv("./data/pols-month.csv") %>%
  janitor::clean_names() %>%
  separate(mon, into = c("year", "month", "day")) %>%
  mutate(
    month = month.abb[as.integer(month)],
    month = str_to_lower(month),
    president = if_else(prez_gop == 1, "gop", "dem")) %>%
  select(-prez_gop, -prez_dem, -day)

pols_month
```

    ## # A tibble: 822 x 9
    ##    year  month gov_gop sen_gop rep_gop gov_dem sen_dem rep_dem president
    ##    <chr> <chr>   <dbl>   <dbl>   <dbl>   <dbl>   <dbl>   <dbl> <chr>    
    ##  1 1947  jan        23      51     253      23      45     198 dem      
    ##  2 1947  feb        23      51     253      23      45     198 dem      
    ##  3 1947  mar        23      51     253      23      45     198 dem      
    ##  4 1947  apr        23      51     253      23      45     198 dem      
    ##  5 1947  may        23      51     253      23      45     198 dem      
    ##  6 1947  jun        23      51     253      23      45     198 dem      
    ##  7 1947  jul        23      51     253      23      45     198 dem      
    ##  8 1947  aug        23      51     253      23      45     198 dem      
    ##  9 1947  sep        23      51     253      23      45     198 dem      
    ## 10 1947  oct        23      51     253      23      45     198 dem      
    ## # … with 812 more rows
…
snp
```

    ## # A tibble: 787 x 3
    ##    year  month snp_close
    ##    <chr> <chr>     <dbl>
    ##  1 1950  apr        18.0
    ##  2 1950  aug        18.4
    ##  3 1950  dec        20.4
    ##  4 1950  feb        17.2
    ##  5 1950  jan        17.0
    ##  6 1950  jul        17.8
    ##  7 1950  jun        17.7
    ##  8 1950  mar        17.3
    ##  9 1950  may        18.8
    ## 10 1950  nov        19.5
    ## # … with 777 more rows
``` r
unemployment = 
  read_csv("./data/unemployment.csv") %>%
  janitor::clean_names() %>%
  pivot_longer(
    jan:dec,
    names_to = "month",
    values_to = "count") %>%
  mutate(year = as.character(year)) %>%
  rename(unemployment_rate = count)

unemployment
```

    ## # A tibble: 816 x 3
    ##    year  month unemployment_rate
    ##    <chr> <chr>             <dbl>
    ##  1 1948  jan                 3.4
    ##  2 1948  feb                 3.8
    ##  3 1948  mar                 4  
    ##  4 1948  apr                 3.9
    ##  5 1948  may                 3.5
    ##  6 1948  jun                 3.6
    ##  7 1948  jul                 3.6
    ##  8 1948  aug                 3.9
    ##  9 1948  sep                 3.8
    ## 10 1948  oct                 3.7
    ## # … with 806 more rows
…
``` r
pol_snp_data = 
  left_join(pols_month, snp, by = c("month", "year"))

pol_snp_unemployment_data = 
  left_join(pol_snp_data, unemployment, by = c("month", "year")) %>%
  select(month, year, president, unemployment_rate, snp_close, everything())

pol_snp_unemployment_data
```

    ## # A tibble: 822 x 11
    ##    month year  president unemployment_ra… snp_close gov_gop sen_gop rep_gop
    ##    <chr> <chr> <chr>                <dbl>     <dbl>   <dbl>   <dbl>   <dbl>
    ##  1 jan   1947  dem                     NA        NA      23      51     253
    ##  2 feb   1947  dem                     NA        NA      23      51     253
    ##  3 mar   1947  dem                     NA        NA      23      51     253
    ##  4 apr   1947  dem                     NA        NA      23      51     253
    ##  5 may   1947  dem                     NA        NA      23      51     253
    ##  6 jun   1947  dem                     NA        NA      23      51     253
    ##  7 jul   1947  dem                     NA        NA      23      51     253
    ##  8 aug   1947  dem                     NA        NA      23      51     253
    ##  9 sep   1947  dem                     NA        NA      23      51     253
    ## 10 oct   1947  dem                     NA        NA      23      51     253
    ## # … with 812 more rows, and 3 more variables: gov_dem <dbl>,
    ## #   sen_dem <dbl>, rep_dem <dbl>
…
pop_baby_names
```

    ## # A tibble: 12,181 x 6
    ##    year_of_birth gender ethnicity              childs_first_na… count  rank
    ##            <dbl> <chr>  <chr>                  <chr>            <dbl> <dbl>
    ##  1          2016 female asian and pacific isl… olivia             172     1
    ##  2          2016 female asian and pacific isl… chloe              112     2
    ##  3          2016 female asian and pacific isl… sophia             104     3
    ##  4          2016 female asian and pacific isl… emily               99     4
    ##  5          2016 female asian and pacific isl… emma                99     4
    ##  6          2016 female asian and pacific isl… mia                 79     5
    ##  7          2016 female asian and pacific isl… charlotte           59     6
    ##  8          2016 female asian and pacific isl… sarah               57     7
    ##  9          2016 female asian and pacific isl… isabella            56     8
    ## 10          2016 female asian and pacific isl… hannah              56     8
    ## # … with 12,171 more rows
…
male_wt_2016
```

    ## # A tibble: 364 x 6
    ##    year_of_birth gender ethnicity          childs_first_name count  rank
    ##            <dbl> <chr>  <chr>              <chr>             <dbl> <dbl>
    ##  1          2016 male   white non hispanic joseph              261     1
    ##  2          2016 male   white non hispanic michael             260     2
    ##  3          2016 male   white non hispanic david               255     3
    ##  4          2016 male   white non hispanic moshe               239     4
    ##  5          2016 male   white non hispanic jacob               236     5
    ##  6          2016 male   white non hispanic james               231     6
    ##  7          2016 male   white non hispanic benjamin            219     7
    ##  8          2016 male   white non hispanic alexander           211     8
    ##  9          2016 male   white non hispanic daniel              196     9
    ## 10          2016 male   white non hispanic henry               196     9
    ## # … with 354 more rows
…
